{
    "name": "CheckinRequest",
    "alias": "checkinrequest",
    "description": "CheckinRequest Module for SYM Project.",
    "keywords": [],
    "version": "1.0.0",
	"active": 1,
    "order": 1,
    "providers": [
        "Modules\\CheckinRequest\\Providers\\CheckinRequestServiceProvider"
    ],
    "aliases": {},
    "files": [
        
    ],
    "requires": []
}
